[{
  "id": 1,
  "fecha": "2/15/2019",
  "importe": 60,
  "latitud": 34.9978522,
  "longitud": 36.1925483,
  "ciudad": "Wādī al ‘Uyūn"
}, {
  "id": 2,
  "fecha": "10/4/2019",
  "importe": 54,
  "latitud": 45.4235609,
  "longitud": -73.9319061,
  "ciudad": "L'Île-Perrot"
}, {
  "id": 3,
  "fecha": "9/13/2019",
  "importe": 100,
  "latitud": 46.8435126,
  "longitud": 74.9809805,
  "ciudad": "Balqash"
}, {
  "id": 4,
  "fecha": "2/27/2019",
  "importe": 68,
  "latitud": 21.355574,
  "longitud": 106.8355372,
  "ciudad": "An Châu"
}, {
  "id": 5,
  "fecha": "9/17/2019",
  "importe": 62,
  "latitud": -6.712398,
  "longitud": 106.8945456,
  "ciudad": "Ciawi"
}, {
  "id": 6,
  "fecha": "9/27/2019",
  "importe": 99,
  "latitud": 55.9128355,
  "longitud": 13.0879461,
  "ciudad": "Svalöv"
}, {
  "id": 7,
  "fecha": "11/2/2018",
  "importe": 85,
  "latitud": -10.9207843,
  "longitud": -76.0594972,
  "ciudad": "Carhuamayo"
}, {
  "id": 8,
  "fecha": "3/30/2019",
  "importe": 99,
  "latitud": "-7.3251",
  "longitud": "108.0264",
  "ciudad": "Cimonyong"
}, {
  "id": 9,
  "fecha": "10/18/2018",
  "importe": 22,
  "latitud": 12.2570417,
  "longitud": 109.04532,
  "ciudad": "Diên Khánh"
}, {
  "id": 10,
  "fecha": "6/30/2019",
  "importe": 73,
  "latitud": 44.8534496,
  "longitud": 38.491586,
  "ciudad": "Chernomorskiy"
}, {
  "id": 11,
  "fecha": "5/23/2019",
  "importe": 13,
  "latitud": 52.959496,
  "longitud": 21.0954627,
  "ciudad": "Płoniawy-Bramura"
}, {
  "id": 12,
  "fecha": "7/27/2019",
  "importe": 5,
  "latitud": 30.975215,
  "longitud": 101.127088,
  "ciudad": "Xianshui"
}, {
  "id": 13,
  "fecha": "11/16/2018",
  "importe": 10,
  "latitud": 37.8269697,
  "longitud": 23.9667402,
  "ciudad": "Kouvarás"
}, {
  "id": 14,
  "fecha": "9/26/2019",
  "importe": 56,
  "latitud": "-9.7327",
  "longitud": "119.3456",
  "ciudad": "Wengaingo"
}, {
  "id": 15,
  "fecha": "7/29/2019",
  "importe": 88,
  "latitud": 10.1884029,
  "longitud": -74.916397,
  "ciudad": "Pedraza"
}, {
  "id": 16,
  "fecha": "9/13/2019",
  "importe": 18,
  "latitud": -7.382645,
  "longitud": 107.7458559,
  "ciudad": "Cikandang"
}, {
  "id": 17,
  "fecha": "11/12/2018",
  "importe": 53,
  "latitud": 26.90846,
  "longitud": 102.930164,
  "ciudad": "Qiaojia"
}, {
  "id": 18,
  "fecha": "8/1/2019",
  "importe": 3,
  "latitud": 22.219533,
  "longitud": 107.98897,
  "ciudad": "Liuge"
}, {
  "id": 19,
  "fecha": "7/1/2019",
  "importe": 65,
  "latitud": 18.252847,
  "longitud": 109.511909,
  "ciudad": "Sanya"
}, {
  "id": 20,
  "fecha": "5/6/2019",
  "importe": 2,
  "latitud": 32.491488,
  "longitud": 80.096419,
  "ciudad": "Gar"
}]
